RTL/riscv.vcd
$date
	Sun Apr  5 06:55:45 2026
$end
$version
	Icarus Verilog
$end
$timescale
	1ps
$end
$scope module tb_riscv $end
$var reg 1 ! clk $end
$var reg 1 " rst $end
$var integer 32 # instr_count [31:0] $end
$scope module uut $end
$var wire 1 $ PCSrc $end
$var wire 1 ! clk $end
$var wire 1 " rst $end
$var wire 5 % rs2 [4:0] $end
$var wire 5 & rs1 [4:0] $end
$var wire 5 ' rd [4:0] $end
$var wire 7 ( opcode [6:0] $end
$var wire 32 ) instruction [31:0] $end
$var wire 7 * funct7 [6:0] $end
$var wire 3 + funct3 [2:0] $end
$var wire 32 , branch_target [31:0] $end
$var wire 1 - Zero $end
$var wire 32 . WriteBack [31:0] $end
$var wire 1 / RegWrite $end
$var wire 32 0 ReadData2 [31:0] $end
$var wire 32 1 ReadData1 [31:0] $end
$var wire 32 2 PC_nxt [31:0] $end
$var wire 32 3 PC_Plus4 [31:0] $end
$var wire 32 4 PC [31:0] $end
$var wire 1 5 MemtoReg $end
$var wire 1 6 MemWrite $end
$var wire 1 7 MemRead $end
$var wire 32 8 MemData [31:0] $end
$var wire 32 9 ImmExt [31:0] $end
$var wire 1 : Branch $end
$var wire 32 ; ALU_B [31:0] $end
$var wire 1 < ALUSrc $end
$var wire 32 = ALUResult [31:0] $end
$var wire 2 > ALUOp [1:0] $end
$var wire 4 ? ALUControl [3:0] $end
$var reg 32 @ instr_count [31:0] $end
$scope module Control_Unit $end
$var wire 7 A opcode [6:0] $end
$var reg 2 B ALUOp [1:0] $end
$var reg 1 < ALUSrc $end
$var reg 1 : Branch $end
$var reg 1 C Jump $end
$var reg 1 7 MemRead $end
$var reg 1 6 MemWrite $end
$var reg 1 5 MemtoReg $end
$var reg 1 / RegWrite $end
$upscope $end
$scope module Imm_gen $end
$var wire 7 D opcode [6:0] $end
$var wire 32 E instruction [31:0] $end
$var reg 32 F ImmExt [31:0] $end
$upscope $end
$scope module Inst_mem $end
$var wire 32 G instruction [31:0] $end
$var wire 32 H PC [31:0] $end
$var integer 32 I i [31:0] $end
$upscope $end
$scope module alu $end
$var wire 1 - Zero $end
$var wire 32 J B [31:0] $end
$var wire 4 K ALUControl [3:0] $end
$var wire 32 L A [31:0] $end
$var reg 32 M Result [31:0] $end
$upscope $end
$scope module alu_control $end
$var wire 2 N ALUOp [1:0] $end
$var wire 3 O funct3 [2:0] $end
$var wire 7 P funct7 [6:0] $end
$var reg 4 Q ALUControl [3:0] $end
$upscope $end
$scope module alu_source_mux $end
$var wire 32 R B [31:0] $end
$var wire 1 < sel $end
$var wire 32 S out [31:0] $end
$var wire 32 T A [31:0] $end
$upscope $end
$scope module branch_adder $end
$var wire 32 U imm [31:0] $end
$var wire 32 V pc [31:0] $end
$var wire 32 W branch_target [31:0] $end
$upscope $end
$scope module data_mem $end
$var wire 1 7 MemRead $end
$var wire 1 6 MemWrite $end
$var wire 32 X address [31:0] $end
$var wire 1 ! clk $end
$var wire 32 Y write_data [31:0] $end
$var wire 32 Z read_data [31:0] $end
$var integer 32 [ i [31:0] $end
$upscope $end
$scope module mem_to_reg_mux $end
$var wire 32 \ A [31:0] $end
$var wire 32 ] B [31:0] $end
$var wire 1 5 sel $end
$var wire 32 ^ out [31:0] $end
$upscope $end
$scope module pc $end
$var wire 1 ! clk $end
$var wire 1 " rst $end
$var wire 32 _ pc_in [31:0] $end
$var reg 32 ` pc_out [31:0] $end
$upscope $end
$scope module pc_adder $end
$var wire 32 a pc [31:0] $end
$var wire 32 b pcPlus4 [31:0] $end
$upscope $end
$scope module pc_mux $end
$var wire 32 c A [31:0] $end
$var wire 32 d B [31:0] $end
$var wire 1 $ sel $end
$var wire 32 e out [31:0] $end
$upscope $end
$scope module reg_file $end
$var wire 1 ! clk $end
$var wire 5 f rd [4:0] $end
$var wire 1 / reg_write $end
$var wire 5 g rs1 [4:0] $end
$var wire 5 h rs2 [4:0] $end
$var wire 1 " rst $end
$var wire 32 i write_data [31:0] $end
$var wire 32 j read_data2 [31:0] $end
$var wire 32 k read_data1 [31:0] $end
$var integer 32 l i [31:0] $end
$upscope $end
$upscope $end
$upscope $end
$enddefinitions $end
$comment Show the parameter values. $end
$dumpall
$end
#0
$dumpvars
b100000 l
b0 k
b0 j
b0 i
b0 h
b0 g
b1 f
b100 e
b0 d
b100 c
b100 b
b0 a
b0 `
b100 _
b0 ^
b0 ]
b0 \
b100000000 [
b0 Z
b0 Y
b0 X
b0 W
b0 V
b0 U
b0 T
b0 S
b0 R
b0 Q
b0 P
b0 O
b10 N
b0 M
b0 L
b0 K
b0 J
b10000000000 I
b0 H
b10010011 G
b0 F
b10010011 E
b10011 D
0C
b10 B
b10011 A
b0 @
b0 ?
b10 >
b0 =
1<
b0 ;
0:
b0 9
b0 8
07
06
05
b0 4
b100 3
b100 2
b0 1
b0 0
1/
b0 .
1-
b0 ,
b0 +
b0 *
b10010011 )
b10011 (
b1 '
b0 &
b0 %
0$
b0 #
1"
0!
$end
#5000
b100000 l
1!
#10000
0!
#15000
b100000 l
1!
#20000
0!
0"
#25000
b101 .
b101 ^
b101 i
0-
b101 =
b101 M
b101 X
b101 \
b101 ;
b101 J
b101 S
b101 %
b101 h
b10 '
b10 f
b101 9
b101 F
b101 R
b101 U
b10100000000000100010011 )
b10100000000000100010011 E
b10100000000000100010011 G
b1000 2
b1000 _
b1000 e
b1 @
b1000 3
b1000 b
b1000 c
b1001 ,
b1001 W
b1001 d
b100 4
b100 H
b100 V
b100 `
b100 a
b1 #
1!
#30000
0!
#35000
b101 .
b101 ^
b101 i
b101 =
b101 M
b101 X
b101 \
b101 0
b101 T
b101 Y
b101 j
b10 >
b10 B
b10 N
0<
1/
b101 ;
b101 J
b101 S
b110011 D
b10 %
b10 h
b1 &
b1 g
b11 '
b11 f
b110011 (
b110011 A
b0 9
b0 F
b0 R
b0 U
b1000001000000110110011 )
b1000001000000110110011 E
b1000001000000110110011 G
b1100 2
b1100 _
b1100 e
b1100 3
b1100 b
b1100 c
b1000 ,
b1000 W
b1000 d
b1000 4
b1000 H
b1000 V
b1000 `
b1000 a
b10 @
b10 #
1!
#40000
0!
#45000
b0 ;
b0 J
b0 S
b101 1
b101 L
b101 k
16
1<
b0 >
b0 B
b0 N
0/
b100011 D
b11 %
b11 h
b10 &
b10 g
b0 '
b0 f
b100011 (
b100011 A
b1100010000000000100011 )
b1100010000000000100011 E
b1100010000000000100011 G
b10000 2
b10000 _
b10000 e
b11 @
b10000 3
b10000 b
b10000 c
b1100 ,
b1100 W
b1100 d
b1100 4
b1100 H
b1100 V
b1100 `
b1100 a
b11 #
1!
#50000
0!
#55000
b101 .
b101 ^
b101 i
b101 8
b101 Z
b101 ]
b101 =
b101 M
b101 X
b101 \
b0 0
b0 T
b0 Y
b0 j
15
17
1/
06
1<
b0 ;
b0 J
b0 S
b11 D
b0 %
b0 h
b11 '
b11 f
b11 (
b11 A
b0 9
b0 F
b0 R
b0 U
b10000000110000011 )
b10000000110000011 E
b10000000110000011 G
b10100 2
b10100 _
b10100 e
b10100 3
b10100 b
b10100 c
b10000 ,
b10000 W
b10000 d
b10000 4
b10000 H
b10000 V
b10000 `
b10000 a
b100 @
b100 #
1!
#60000
0!
#65000
b110 .
b110 ^
b110 i
b0 8
b0 Z
b0 ]
b110 =
b110 M
b110 X
b110 \
b10 >
b10 B
b10 N
05
07
1<
1/
b1 ;
b1 J
b1 S
b10011 D
b1 %
b1 h
b11 &
b11 g
b100 '
b100 f
b10011 (
b10011 A
b1 9
b1 F
b1 R
b1 U
b100011000001000010011 )
b100011000001000010011 E
b100011000001000010011 G
b11000 2
b11000 _
b11000 e
b101 @
b11000 3
b11000 b
b11000 c
b10101 ,
b10101 W
b10101 d
b10100 4
b10100 H
b10100 V
b10100 `
b10100 a
b101 #
1!
#70000
0!
#75000
b11111111111111111111111111111111 .
b11111111111111111111111111111111 ^
b11111111111111111111111111111111 i
b11111111111111111111111111111111 =
b11111111111111111111111111111111 M
b11111111111111111111111111111111 X
b11111111111111111111111111111111 \
b110 0
b110 T
b110 Y
b110 j
b1 ?
b1 K
b1 Q
1:
b1 >
b1 B
b1 N
0<
0/
b110 ;
b110 J
b110 S
b1100011 D
b100 %
b100 h
b10 +
b10 O
b0 '
b0 f
b1100011 (
b1100011 A
b0 9
b0 F
b0 R
b0 U
b10000011010000001100011 )
b10000011010000001100011 E
b10000011010000001100011 G
b11100 2
b11100 _
b11100 e
b11100 3
b11100 b
b11100 c
b11000 ,
b11000 W
b11000 d
b11000 4
b11000 H
b11000 V
b11000 `
b11000 a
b110 @
b110 #
1!
#80000
0!
#85000
b10 .
b10 ^
b10 i
b10 =
b10 M
b10 X
b10 \
b10 ;
b10 J
b10 S
b101 0
b101 T
b101 Y
b101 j
b0 1
b0 L
b0 k
b0 ?
b0 K
b0 Q
1<
1/
b10 >
b10 B
b10 N
0:
b10011 D
b10 %
b10 h
b0 &
b0 g
b0 +
b0 O
b101 '
b101 f
b10011 (
b10011 A
b10 9
b10 F
b10 R
b10 U
b1000000000001010010011 )
b1000000000001010010011 E
b1000000000001010010011 G
b100000 2
b100000 _
b100000 e
b111 @
b100000 3
b100000 b
b100000 c
b11110 ,
b11110 W
b11110 d
b11100 4
b11100 H
b11100 V
b11100 `
b11100 a
b111 #
1!
#90000
0!
#95000
b0 .
b0 ^
b0 i
1-
b0 =
b0 M
b0 X
b0 \
b0 0
b0 T
b0 Y
b0 j
b0 ;
b0 J
b0 S
b0 %
b0 h
b0 '
b0 f
b0 9
b0 F
b0 R
b0 U
b10011 )
b10011 E
b10011 G
b100100 2
b100100 _
b100100 e
b100100 3
b100100 b
b100100 c
b100000 ,
b100000 W
b100000 d
b100000 4
b100000 H
b100000 V
b100000 `
b100000 a
b1000 @
b1000 #
1!
#100000
0!
#105000
b0 >
b0 B
b0 N
0<
0/
b0 D
b0 (
b0 A
b0 )
b0 E
b0 G
b101000 2
b101000 _
b101000 e
b1001 @
b101000 3
b101000 b
b101000 c
b100100 ,
b100100 W
b100100 d
b100100 4
b100100 H
b100100 V
b100100 `
b100100 a
b1001 #
1!
